<?xml version="1.0" encoding="utf-8"?>
<!-- Generator: Adobe Illustrator 16.0.0, SVG Export Plug-In . SVG Version: 6.00 Build 0)  -->
<!DOCTYPE svg PUBLIC "-//W3C//DTD SVG 1.1//EN" "http://www.w3.org/Graphics/SVG/1.1/DTD/svg11.dtd">
<svg version="1.1" id="Layer_1" xmlns="http://www.w3.org/2000/svg" xmlns:xlink="http://www.w3.org/1999/xlink" x="0px" y="0px"
	 width="28.347px" height="28.347px" viewBox="0 0 28.347 28.347" enable-background="new 0 0 28.347 28.347" xml:space="preserve">
<path fill-rule="evenodd" clip-rule="evenodd" fill="#FFFFFF" d="M27.912,26.981c0,0-4.917-6.557-10.943-12.81
	C22.99,7.915,27.904,1.356,27.904,1.356c0.385-0.386,0.623-0.774,0.237-1.16c-0.386-0.386-0.773-0.148-1.159,0.238
	c0,0-6.557,4.917-12.81,10.943C7.915,5.356,1.356,0.442,1.356,0.442C0.97,0.057,0.583-0.18,0.196,0.205
	c-0.386,0.386-0.148,0.773,0.238,1.159c0,0,4.917,6.557,10.943,12.81C5.357,20.432,0.442,26.99,0.442,26.99
	c-0.385,0.386-0.623,0.774-0.237,1.16c0.386,0.386,0.773,0.148,1.16-0.238c0,0,6.557-4.917,12.81-10.943
	c6.258,6.021,12.816,10.935,12.816,10.935c0.386,0.385,0.774,0.623,1.16,0.237S28.298,27.368,27.912,26.981z"/>
</svg>
