<?xml version="1.0" encoding="utf-8"?>
<!-- Generator: Adobe Illustrator 16.0.0, SVG Export Plug-In . SVG Version: 6.00 Build 0)  -->
<!DOCTYPE svg PUBLIC "-//W3C//DTD SVG 1.1//EN" "http://www.w3.org/Graphics/SVG/1.1/DTD/svg11.dtd">
<svg version="1.1" id="Layer_1" xmlns="http://www.w3.org/2000/svg" xmlns:xlink="http://www.w3.org/1999/xlink" x="0px" y="0px"
	 width="16px" height="16px" viewBox="0 0 16 16" enable-background="new 0 0 16 16" xml:space="preserve">
<path fill="#705B69" d="M7.995,15.99c4.415,0,7.995-3.58,7.995-7.995C15.99,3.58,12.41,0,7.995,0C3.58,0,0,3.58,0,7.995
	C0,12.41,3.58,15.99,7.995,15.99"/>
<path fill="#FFFFFF" d="M7.995,3.977c-2.207,0-3.998,1.789-3.998,3.998c0,1.637,0.984,3.042,2.393,3.662
	c-0.011-0.28-0.001-0.615,0.07-0.92c0.077-0.323,0.514-2.178,0.514-2.178S6.847,8.284,6.847,7.906c0-0.592,0.344-1.035,0.771-1.035
	c0.363,0,0.539,0.273,0.539,0.6c0,0.366-0.232,0.913-0.353,1.418C7.704,9.313,8.016,9.66,8.435,9.66
	c0.757,0,1.267-0.973,1.267-2.125c0-0.876-0.59-1.532-1.663-1.532c-1.213,0-1.968,0.904-1.968,1.915
	c0,0.348,0.103,0.594,0.264,0.784c0.074,0.088,0.084,0.123,0.058,0.224C6.373,8.998,6.329,9.176,6.311,9.246
	c-0.026,0.101-0.109,0.137-0.2,0.1c-0.559-0.229-0.818-0.84-0.818-1.527c0-1.136,0.958-2.498,2.856-2.498
	c1.526,0,2.531,1.105,2.531,2.29c0,1.568-0.872,2.739-2.157,2.739c-0.431,0-0.837-0.232-0.977-0.497c0,0-0.232,0.921-0.281,1.1
	c-0.084,0.308-0.25,0.615-0.402,0.854c0.359,0.106,0.74,0.165,1.133,0.165c2.208,0,3.997-1.79,3.997-3.997
	C11.992,5.766,10.203,3.977,7.995,3.977"/>
</svg>
