<?xml version="1.0" encoding="utf-8"?>
<!-- Generator: Adobe Illustrator 16.0.0, SVG Export Plug-In . SVG Version: 6.00 Build 0)  -->
<!DOCTYPE svg PUBLIC "-//W3C//DTD SVG 1.1//EN" "http://www.w3.org/Graphics/SVG/1.1/DTD/svg11.dtd">
<svg version="1.1" id="Layer_1" xmlns="http://www.w3.org/2000/svg" xmlns:xlink="http://www.w3.org/1999/xlink" x="0px" y="0px"
	 width="16px" height="14.609px" viewBox="0 0 16 14.609" enable-background="new 0 0 16 14.609" xml:space="preserve">
<g>
	<g>
		<path fill="#FFFFFF" d="M5.345,10.748V7.847c0-0.058-0.031-0.111-0.08-0.139L2.993,6.396l2.273-1.312
			c0.048-0.03,0.08-0.081,0.08-0.139c0-0.057-0.031-0.11-0.08-0.138L2.753,3.357C2.728,3.342,2.7,3.335,2.673,3.335
			c-0.028,0-0.056,0.007-0.08,0.022L0.081,4.808C0.031,4.835,0,4.889,0,4.946v2.901c0,0.058,0.031,0.109,0.081,0.139l2.272,1.311
			l-2.272,1.313C0.031,10.639,0,10.691,0,10.748c0,0.058,0.031,0.108,0.081,0.138l2.513,1.452c0.024,0.014,0.052,0.021,0.08,0.021
			c0.027,0,0.055-0.007,0.081-0.021l2.512-1.452C5.314,10.856,5.345,10.806,5.345,10.748z"/>
		<path fill="#FFFFFF" d="M3.276,3.2l2.432,1.405v2.808c0,0.057,0.031,0.11,0.08,0.139l2.513,1.451
			c0.025,0.014,0.052,0.021,0.08,0.021c0.028,0,0.056-0.008,0.08-0.021C8.51,8.974,8.54,8.92,8.54,8.863v-2.9V3.154l2.434-1.405
			c0.049-0.028,0.079-0.081,0.079-0.139c0-0.057-0.03-0.109-0.079-0.138L8.46,0.021C8.436,0.008,8.408,0,8.38,0
			c-0.027,0-0.055,0.008-0.08,0.021L5.788,1.472l-2.512,1.45c-0.05,0.029-0.081,0.081-0.081,0.139S3.226,3.172,3.276,3.2z"/>
		<path fill="#FFFFFF" d="M8.982,3.466c0,0.058,0.031,0.111,0.079,0.139l2.274,1.312L9.061,6.23
			C9.013,6.258,8.982,6.311,8.982,6.368V9.27c0,0.056,0.031,0.109,0.079,0.139l2.515,1.448c0.023,0.016,0.051,0.023,0.079,0.023
			s0.054-0.008,0.079-0.023l2.512-1.448c0.05-0.029,0.08-0.083,0.08-0.139V6.368V3.466c0-0.058-0.03-0.109-0.08-0.139l-2.512-1.45
			c-0.025-0.013-0.051-0.021-0.079-0.021s-0.056,0.008-0.079,0.021l-2.515,1.45C9.013,3.357,8.982,3.409,8.982,3.466z"/>
	</g>
	<g>
		<g>
			<polygon fill="#937F84" points="2.673,6.396 2.673,3.495 0.16,4.946 2.673,6.396 			"/>
			<polygon fill="#3F6F77" points="5.186,4.946 2.673,3.495 2.673,6.396 			"/>
			<polygon fill="#C280B7" points="2.673,6.396 2.673,6.396 2.673,6.396 			"/>
			<polygon fill="#909B6F" points="0.16,4.946 0.16,4.946 0.16,7.847 2.673,6.396 			"/>
			<polygon fill="#C36B4A" points="2.673,6.396 0.16,7.847 0.16,7.847 2.673,9.297 2.673,6.396 			"/>
			<polygon fill="#8F4F39" points="2.673,9.297 5.186,7.847 2.673,6.396 			"/>
			<polygon fill="#BF922D" points="5.186,7.847 5.186,7.847 2.673,9.297 2.673,9.297 5.186,10.748 5.186,10.748 			"/>
			<polygon fill="#658695" points="2.673,9.297 0.16,10.748 0.16,10.748 2.673,12.198 2.673,9.297 			"/>
			<polygon fill="#D4B97B" points="2.673,12.198 5.186,10.748 2.673,9.297 			"/>
		</g>
		<g>
			<polygon fill="#D4B97B" points="5.868,4.512 5.868,1.61 3.355,3.061 5.868,4.512 			"/>
			<polygon fill="#BF922D" points="8.38,3.061 5.868,1.61 5.868,4.512 			"/>
			<polygon fill="#C280B7" points="5.868,4.512 5.868,4.512 5.868,4.512 			"/>
			<polygon fill="#658695" points="8.38,3.061 8.38,3.061 5.868,4.512 5.868,4.512 8.38,5.962 8.38,5.962 			"/>
			<polygon fill="#937F84" points="8.38,0.16 8.38,0.16 5.868,1.61 5.868,1.61 8.38,3.061 8.38,3.061 			"/>
			<polygon fill="#3F6F77" points="5.868,7.413 8.38,5.962 5.868,4.512 			"/>
			<polygon fill="#715D69" points="8.38,3.061 10.892,1.61 8.38,0.16 			"/>
			<polygon fill="#C36B4A" points="8.38,5.962 8.38,5.962 5.868,7.413 5.868,7.413 8.38,8.863 8.38,8.863 			"/>
		</g>
		<g>
			<polygon fill="#D4B97B" points="11.654,4.917 11.654,2.016 9.142,3.466 11.654,4.917 			"/>
			<polygon fill="#909B6F" points="14.166,3.466 11.654,2.016 11.654,4.917 			"/>
			<polygon fill="#C280B7" points="11.654,4.917 11.654,4.917 11.654,4.917 			"/>
			<polygon fill="#909B6F" points="9.142,6.368 9.142,6.368 9.142,9.27 11.654,7.819 			"/>
			<polygon fill="#3F6F77" points="14.166,3.466 14.166,3.466 11.654,4.917 11.654,4.917 14.166,6.368 14.166,6.368 			"/>
			<polygon fill="#C36B4A" points="11.654,4.917 9.142,6.368 9.142,6.368 11.654,7.819 11.654,4.917 			"/>
			<polygon fill="#715D69" points="11.654,7.819 14.166,6.368 11.654,4.917 			"/>
			<polygon fill="#658695" points="14.166,6.368 14.166,6.368 11.654,7.819 11.654,7.819 14.166,9.27 14.166,9.27 			"/>
			<polygon fill="#937F84" points="11.654,7.819 9.142,9.27 9.142,9.27 11.654,10.719 11.654,7.819 			"/>
			<polygon fill="#BF922D" points="11.654,10.719 14.166,9.27 11.654,7.819 			"/>
		</g>
		<g>
			<path fill="#FFFFFF" d="M5.513,13.251c0.016,0.013,0.036,0.023,0.059,0.035C5.596,13.296,5.632,13.3,5.68,13.3
				c0.04,0,0.079-0.004,0.114-0.014c0.035-0.012,0.065-0.024,0.09-0.042c0.027-0.021,0.047-0.045,0.063-0.07
				c0.015-0.028,0.023-0.057,0.023-0.092c0-0.046-0.016-0.084-0.047-0.116c-0.03-0.03-0.069-0.058-0.115-0.081
				c-0.047-0.024-0.096-0.047-0.15-0.071c-0.055-0.022-0.105-0.051-0.15-0.082C5.46,12.7,5.422,12.663,5.392,12.619
				c-0.031-0.045-0.046-0.1-0.046-0.167c0-0.048,0.009-0.09,0.028-0.128c0.019-0.039,0.046-0.07,0.081-0.096
				c0.034-0.027,0.076-0.047,0.124-0.063c0.048-0.014,0.102-0.021,0.161-0.021c0.077,0,0.148,0.006,0.211,0.017
				c0.063,0.01,0.114,0.024,0.15,0.04c0,0.019-0.001,0.041-0.005,0.068c-0.003,0.025-0.006,0.051-0.012,0.079
				c-0.003,0.027-0.009,0.054-0.013,0.08c-0.006,0.025-0.01,0.048-0.015,0.066h-0.05L5.93,12.262
				c-0.022-0.011-0.052-0.016-0.087-0.021c-0.034-0.005-0.072-0.007-0.111-0.007c-0.064,0-0.117,0.017-0.156,0.05
				c-0.04,0.031-0.06,0.078-0.06,0.135c0,0.048,0.017,0.089,0.047,0.12c0.031,0.03,0.07,0.06,0.117,0.086
				c0.048,0.025,0.097,0.049,0.152,0.073c0.053,0.023,0.104,0.051,0.151,0.081c0.047,0.03,0.086,0.066,0.117,0.11
				c0.031,0.042,0.046,0.094,0.046,0.159c0,0.051-0.01,0.097-0.031,0.139c-0.021,0.042-0.051,0.08-0.09,0.108
				c-0.039,0.032-0.086,0.054-0.143,0.07c-0.057,0.017-0.122,0.023-0.193,0.023c-0.08,0-0.151-0.01-0.214-0.025
				c-0.063-0.018-0.107-0.035-0.134-0.057c0.001-0.018,0.003-0.042,0.007-0.069c0.003-0.027,0.006-0.057,0.01-0.084
				c0.005-0.03,0.011-0.059,0.015-0.087c0.005-0.027,0.01-0.05,0.016-0.069h0.048L5.513,13.251z"/>
			<path fill="#FFFFFF" d="M6.866,13.368H6.382v-0.05c0.049-0.02,0.099-0.032,0.151-0.041v-1.021
				c-0.025-0.003-0.051-0.009-0.076-0.017c-0.025-0.006-0.051-0.016-0.076-0.025v-0.049h0.484v0.049
				c-0.023,0.01-0.047,0.02-0.073,0.025c-0.028,0.008-0.053,0.014-0.078,0.017v1.021c0.026,0.006,0.053,0.011,0.079,0.018
				c0.027,0.007,0.05,0.016,0.072,0.023V13.368z"/>
			<path fill="#FFFFFF" d="M7.925,12.166h0.408v0.049c-0.052,0.033-0.104,0.056-0.154,0.069v1.105H8.07l-0.686-0.947L7.31,12.309
				H7.305l0.017,0.134v0.817c0.052,0.012,0.1,0.032,0.146,0.059v0.05H7.059v-0.05c0.023-0.012,0.047-0.022,0.073-0.032
				c0.026-0.012,0.054-0.019,0.082-0.026v-0.986c-0.025-0.011-0.049-0.019-0.074-0.03c-0.024-0.009-0.047-0.019-0.069-0.029v-0.048
				h0.319l0.597,0.816l0.086,0.147h0.008l-0.01-0.147v-0.698c-0.026-0.011-0.053-0.021-0.077-0.033
				c-0.024-0.011-0.046-0.022-0.068-0.036V12.166z"/>
			<path fill="#FFFFFF" d="M9.588,13.288c-0.025,0.012-0.053,0.023-0.085,0.036c-0.031,0.012-0.065,0.022-0.103,0.031
				c-0.035,0.012-0.071,0.018-0.106,0.024c-0.036,0.006-0.069,0.01-0.102,0.01c-0.101,0-0.191-0.012-0.272-0.037
				c-0.081-0.023-0.149-0.063-0.207-0.114c-0.057-0.051-0.101-0.114-0.131-0.192c-0.032-0.078-0.047-0.172-0.047-0.279
				c0-0.11,0.018-0.207,0.055-0.286c0.036-0.078,0.083-0.143,0.144-0.193s0.127-0.086,0.204-0.109
				c0.076-0.021,0.154-0.032,0.234-0.032c0.083,0,0.152,0.005,0.21,0.013c0.059,0.012,0.109,0.024,0.15,0.044
				c0,0.019,0,0.039-0.001,0.065c-0.002,0.023-0.004,0.052-0.007,0.078c-0.001,0.027-0.004,0.057-0.009,0.082
				c-0.003,0.027-0.008,0.05-0.011,0.072H9.454l-0.098-0.249c-0.014-0.008-0.037-0.011-0.068-0.014
				c-0.033-0.002-0.066-0.003-0.098-0.003c-0.063,0-0.122,0.012-0.179,0.031c-0.057,0.021-0.106,0.055-0.147,0.099
				c-0.043,0.043-0.076,0.1-0.101,0.167c-0.025,0.066-0.038,0.146-0.038,0.235c0,0.082,0.012,0.155,0.036,0.221
				c0.025,0.066,0.059,0.121,0.103,0.168s0.093,0.08,0.151,0.107c0.06,0.025,0.123,0.037,0.189,0.037
				c0.026,0,0.051-0.001,0.074-0.006s0.046-0.01,0.066-0.018c0.02-0.005,0.036-0.013,0.051-0.02
				c0.013-0.006,0.021-0.012,0.025-0.018v-0.347c-0.031-0.001-0.063-0.008-0.093-0.015c-0.029-0.01-0.059-0.018-0.088-0.026v-0.051
				h0.464v0.051c-0.012,0.008-0.027,0.015-0.046,0.022c-0.019,0.009-0.041,0.014-0.071,0.019V13.288z"/>
			<path fill="#FFFFFF" d="M10.204,13.368H9.783v-0.05c0.046-0.018,0.092-0.03,0.138-0.041l0.479-1.132h0.053l0.479,1.132
				c0.025,0.006,0.051,0.011,0.074,0.017c0.025,0.006,0.049,0.014,0.07,0.024v0.05h-0.488v-0.05
				c0.025-0.008,0.053-0.017,0.078-0.023c0.027-0.007,0.053-0.012,0.076-0.018l-0.126-0.314h-0.45l-0.124,0.314
				c0.054,0.009,0.106,0.021,0.162,0.041V13.368z M10.204,12.874h0.379l-0.147-0.365L10.4,12.362h-0.005l-0.048,0.151L10.204,12.874
				z"/>
			<path fill="#FFFFFF" d="M11.515,13.277c0.035,0.005,0.067,0.011,0.096,0.018c0.032,0.007,0.061,0.016,0.086,0.023v0.05h-0.518
				v-0.05c0.025-0.011,0.049-0.019,0.077-0.024c0.025-0.006,0.054-0.011,0.079-0.017v-1.021c-0.03-0.003-0.059-0.009-0.082-0.017
				c-0.025-0.006-0.051-0.016-0.074-0.025v-0.049h0.17c0.052,0,0.105-0.003,0.163-0.008c0.061-0.005,0.117-0.006,0.171-0.006
				c0.063,0,0.123,0.006,0.182,0.019c0.061,0.012,0.112,0.031,0.158,0.061c0.047,0.028,0.084,0.066,0.112,0.114
				c0.028,0.047,0.042,0.106,0.042,0.179c0,0.067-0.014,0.126-0.042,0.173c-0.03,0.046-0.07,0.087-0.116,0.118
				c-0.049,0.03-0.105,0.053-0.168,0.068c-0.061,0.014-0.124,0.021-0.191,0.021c-0.005,0-0.014,0-0.025,0c-0.015,0-0.03,0-0.045,0
				c-0.014-0.001-0.03-0.002-0.044-0.002c-0.014-0.003-0.023-0.004-0.03-0.005V13.277z M11.646,12.241c-0.031,0-0.057,0-0.075,0.001
				s-0.037,0.004-0.056,0.008v0.557c0.007,0.002,0.017,0.003,0.027,0.006c0.012,0,0.023,0.001,0.038,0.001
				c0.014,0.001,0.025,0.002,0.039,0.002c0.015,0,0.023,0,0.03,0c0.045,0,0.084-0.006,0.124-0.016
				c0.039-0.013,0.072-0.029,0.103-0.053c0.032-0.024,0.054-0.055,0.072-0.091c0.019-0.037,0.025-0.082,0.025-0.132
				c0-0.095-0.03-0.166-0.086-0.212C11.829,12.263,11.748,12.241,11.646,12.241z"/>
			<path fill="#FFFFFF" d="M12.398,12.767c0-0.088,0.014-0.172,0.04-0.247c0.027-0.077,0.067-0.143,0.118-0.199
				c0.052-0.055,0.112-0.098,0.187-0.13c0.072-0.031,0.159-0.045,0.255-0.045c0.093,0,0.18,0.014,0.252,0.045
				c0.074,0.032,0.14,0.075,0.19,0.13c0.05,0.057,0.089,0.122,0.117,0.199c0.028,0.075,0.04,0.159,0.04,0.247
				c0,0.089-0.012,0.173-0.04,0.249c-0.028,0.078-0.067,0.141-0.117,0.198c-0.051,0.055-0.116,0.098-0.19,0.13
				c-0.072,0.03-0.159,0.046-0.252,0.046c-0.096,0-0.183-0.016-0.255-0.046c-0.074-0.032-0.135-0.075-0.187-0.13
				c-0.051-0.058-0.091-0.12-0.118-0.198C12.412,12.939,12.398,12.855,12.398,12.767z M12.602,12.767
				c0,0.074,0.009,0.144,0.023,0.209c0.019,0.064,0.042,0.12,0.076,0.168c0.035,0.049,0.077,0.086,0.131,0.114
				s0.112,0.042,0.182,0.042c0.065,0,0.122-0.014,0.171-0.042c0.044-0.028,0.086-0.065,0.119-0.114
				c0.03-0.048,0.054-0.104,0.067-0.168c0.014-0.065,0.023-0.135,0.023-0.209c0-0.073-0.01-0.142-0.023-0.206
				c-0.014-0.065-0.045-0.122-0.077-0.169c-0.032-0.051-0.077-0.088-0.128-0.115c-0.052-0.027-0.112-0.042-0.185-0.042
				c-0.07,0-0.126,0.015-0.178,0.042c-0.049,0.027-0.083,0.064-0.116,0.115c-0.03,0.047-0.054,0.104-0.065,0.169
				C12.608,12.625,12.602,12.693,12.602,12.767z"/>
			<path fill="#FFFFFF" d="M14.136,13.277c0.03,0.007,0.059,0.013,0.087,0.019c0.022,0.006,0.051,0.015,0.074,0.022v0.05H13.8v-0.05
				c0.026-0.011,0.054-0.019,0.079-0.024c0.026-0.006,0.05-0.011,0.077-0.017v-1.021c-0.035-0.006-0.063-0.011-0.086-0.017
				c-0.028-0.009-0.049-0.018-0.07-0.025v-0.049h0.168c0.047,0,0.103-0.003,0.166-0.008c0.061-0.005,0.116-0.006,0.173-0.006
				c0.064,0,0.118,0.006,0.175,0.019c0.056,0.012,0.1,0.031,0.14,0.061c0.037,0.025,0.072,0.062,0.089,0.104
				c0.023,0.042,0.032,0.095,0.032,0.154c0,0.084-0.021,0.153-0.067,0.208c-0.049,0.055-0.117,0.094-0.201,0.118
				c0.057,0.078,0.11,0.155,0.168,0.233c0.063,0.075,0.124,0.15,0.187,0.228l0.105,0.05v0.042h-0.229l-0.075-0.046
				c-0.034-0.04-0.067-0.081-0.098-0.118c-0.027-0.038-0.056-0.078-0.079-0.116c-0.023-0.042-0.049-0.081-0.07-0.122
				c-0.023-0.042-0.046-0.083-0.067-0.13h-0.18V13.277z M14.262,12.241c-0.025,0-0.051,0-0.069,0.001
				c-0.021,0.001-0.04,0.004-0.057,0.008v0.511h0.138c0.086,0,0.156-0.025,0.208-0.075c0.049-0.049,0.076-0.116,0.076-0.197
				c0-0.086-0.027-0.148-0.084-0.188C14.418,12.261,14.351,12.241,14.262,12.241z"/>
			<path fill="#FFFFFF" d="M15.948,12.166c-0.003,0.045-0.007,0.091-0.007,0.138c-0.003,0.048-0.007,0.094-0.015,0.141h-0.046
				l-0.077-0.189h-0.415v0.456h0.306l0.076-0.127h0.047c0.01,0.113,0.01,0.229,0,0.348h-0.047l-0.076-0.131h-0.306v0.479h0.436
				l0.091-0.207h0.047c0.01,0.05,0.019,0.098,0.021,0.146c0.002,0.051,0.002,0.1,0,0.15h-0.931v-0.05
				c0.044-0.018,0.093-0.03,0.153-0.041v-1.021c-0.025-0.003-0.049-0.009-0.076-0.017c-0.028-0.006-0.052-0.016-0.077-0.025v-0.049
				H15.948z"/>
			<path fill="#FFFFFF" d="M5.676,14.598H5.397v-0.025c0.014-0.006,0.029-0.009,0.043-0.015c0.016-0.003,0.032-0.006,0.049-0.006
				v-0.539H5.337l-0.051,0.128H5.26c-0.002-0.012-0.004-0.023-0.005-0.04c-0.001-0.015-0.002-0.028-0.003-0.045
				C5.251,14.04,5.25,14.021,5.25,14.007c0-0.015-0.001-0.028-0.001-0.04h0.576c0,0.012,0,0.025,0,0.04s-0.001,0.031-0.002,0.045
				c-0.001,0.021-0.003,0.034-0.003,0.049c-0.001,0.017-0.003,0.028-0.004,0.04H5.788l-0.053-0.128H5.585v0.539
				c0.016,0,0.032,0.003,0.047,0.006s0.029,0.009,0.043,0.015V14.598z"/>
			<path fill="#FFFFFF" d="M6.169,14.598H5.915v-0.025c0.026-0.012,0.053-0.018,0.08-0.021v-0.536
				c-0.013-0.003-0.026-0.006-0.04-0.009c-0.014-0.003-0.026-0.009-0.04-0.015v-0.025h0.254v0.025
				c-0.012,0.006-0.025,0.012-0.039,0.015s-0.028,0.006-0.041,0.009v0.536c0.014,0,0.028,0.003,0.042,0.006
				c0.014,0.006,0.027,0.009,0.039,0.015V14.598z"/>
			<path fill="#FFFFFF" d="M7.068,14.598H6.824v-0.025c0.014-0.006,0.027-0.009,0.04-0.012c0.014-0.006,0.027-0.009,0.042-0.009
				v-0.407l0.003-0.104H6.901l-0.033,0.095l-0.203,0.463H6.64l-0.193-0.463l-0.036-0.103H6.401l0.001,0.112v0.407
				c0.013,0,0.024,0.003,0.038,0.006c0.012,0.006,0.025,0.009,0.038,0.015v0.025H6.271v-0.025c0.012-0.006,0.026-0.009,0.04-0.015
				c0.012-0.003,0.026-0.006,0.041-0.01v-0.532c-0.014-0.003-0.028-0.006-0.041-0.009c-0.014-0.003-0.028-0.009-0.041-0.015v-0.025
				h0.203l0.172,0.409l0.034,0.097H6.68l0.034-0.097l0.179-0.409h0.176v0.025c-0.011,0.006-0.024,0.012-0.036,0.015
				c-0.014,0.003-0.026,0.006-0.039,0.009v0.536c0.013,0,0.027,0.003,0.039,0.009c0.012,0.003,0.024,0.006,0.034,0.012V14.598z"/>
			<path fill="#FFFFFF" d="M7.154,14.598v-0.025c0.026-0.012,0.053-0.021,0.081-0.021v-0.536c-0.013-0.003-0.027-0.006-0.04-0.009
				c-0.014-0.003-0.028-0.009-0.041-0.015v-0.025h0.105c0.012,0,0.024,0,0.036,0c0.012-0.002,0.023-0.002,0.036-0.002
				c0.012,0,0.026,0,0.04-0.004c0.015,0,0.031,0,0.05,0c0.026,0,0.053,0.004,0.081,0.006c0.027,0.004,0.051,0.012,0.074,0.022
				c0.022,0.012,0.039,0.026,0.055,0.045c0.014,0.021,0.02,0.046,0.02,0.077c0,0.016-0.002,0.029-0.007,0.046
				c-0.005,0.015-0.014,0.031-0.024,0.045c-0.012,0.012-0.025,0.026-0.042,0.034c-0.017,0.009-0.036,0.019-0.059,0.024v0.002
				c0.02,0.005,0.041,0.008,0.059,0.017c0.02,0.006,0.037,0.016,0.053,0.027c0.015,0.013,0.028,0.027,0.037,0.046
				c0.01,0.018,0.015,0.04,0.015,0.064c0,0.034-0.008,0.062-0.023,0.085c-0.016,0.024-0.036,0.042-0.063,0.059
				c-0.025,0.015-0.054,0.024-0.086,0.031c-0.031,0.008-0.065,0.012-0.099,0.012c-0.022,0-0.048-0.004-0.078-0.004
				c-0.028-0.002-0.057-0.002-0.084-0.002H7.154z M7.374,14.255c0.012,0,0.025-0.004,0.04-0.004c0.016,0,0.028,0,0.038-0.003
				c0.031-0.009,0.056-0.024,0.075-0.046c0.021-0.021,0.03-0.045,0.03-0.075c0-0.038-0.014-0.069-0.04-0.089
				c-0.027-0.02-0.061-0.028-0.104-0.028c-0.021,0-0.039,0-0.053,0s-0.026,0-0.036,0.003v0.242H7.374z M7.419,14.555
				c0.023,0,0.045-0.003,0.066-0.011c0.021-0.006,0.039-0.014,0.054-0.025c0.014-0.01,0.026-0.025,0.034-0.043
				c0.009-0.017,0.014-0.034,0.014-0.053c0-0.024-0.005-0.043-0.016-0.061c-0.01-0.017-0.024-0.028-0.042-0.037
				c-0.017-0.009-0.038-0.015-0.06-0.019c-0.022-0.006-0.047-0.006-0.07-0.006H7.324v0.247c0.01,0.004,0.021,0.004,0.034,0.007
				C7.37,14.555,7.391,14.555,7.419,14.555z"/>
			<path fill="#FFFFFF" d="M8.257,13.967c0,0.025-0.001,0.049-0.003,0.073s-0.004,0.049-0.007,0.075H8.221l-0.041-0.103H7.965v0.238
				h0.162l0.038-0.067h0.024c0.004,0.062,0.004,0.123,0,0.185H8.165l-0.038-0.067H7.965v0.251h0.227l0.05-0.11h0.024
				c0.004,0.028,0.007,0.052,0.009,0.077s0.002,0.051,0,0.079H7.788v-0.025c0.023-0.012,0.05-0.018,0.081-0.021v-0.536
				c-0.014-0.003-0.027-0.006-0.041-0.009c-0.014-0.003-0.027-0.009-0.04-0.015v-0.025H8.257z"/>
			<path fill="#FFFFFF" d="M8.566,14.552c0.014,0,0.03,0.003,0.043,0.009c0.014,0.003,0.028,0.006,0.041,0.012v0.025H8.389v-0.025
				c0.015-0.009,0.028-0.012,0.042-0.015c0.014-0.003,0.026-0.006,0.04-0.006v-0.536c-0.017-0.003-0.033-0.006-0.045-0.012
				c-0.013-0.003-0.025-0.006-0.036-0.012v-0.025h0.087c0.027,0,0.055,0,0.087-0.002c0.032-0.004,0.063-0.006,0.092-0.006
				c0.032,0,0.063,0.006,0.091,0.012c0.028,0.006,0.053,0.016,0.073,0.03s0.036,0.033,0.048,0.055
				c0.011,0.021,0.018,0.049,0.018,0.079c0,0.046-0.013,0.079-0.038,0.11c-0.026,0.028-0.061,0.05-0.104,0.062
				c0.029,0.044,0.058,0.084,0.089,0.123c0.031,0.04,0.064,0.079,0.098,0.118l0.053,0.027v0.022h-0.12l-0.038-0.025
				c-0.019-0.021-0.036-0.042-0.051-0.06c-0.016-0.022-0.029-0.043-0.043-0.062c-0.013-0.021-0.025-0.044-0.037-0.065
				s-0.023-0.043-0.036-0.066H8.566V14.552z M8.633,14.007c-0.016,0-0.028,0-0.039,0c-0.009,0-0.02,0.003-0.028,0.003v0.27h0.071
				c0.046,0,0.082-0.017,0.109-0.04c0.025-0.027,0.04-0.062,0.04-0.104c0-0.042-0.015-0.077-0.043-0.097
				C8.714,14.016,8.677,14.007,8.633,14.007z"/>
			<path fill="#FFFFFF" d="M9.502,14.598H9.281v-0.025c0.024-0.012,0.048-0.018,0.072-0.021l0.251-0.597h0.029l0.249,0.597
				c0.014,0,0.025,0.003,0.039,0.006c0.013,0.003,0.024,0.006,0.036,0.015v0.025H9.702v-0.025c0.014-0.006,0.028-0.009,0.041-0.015
				c0.014-0.003,0.028-0.006,0.04-0.006l-0.065-0.166H9.481l-0.065,0.166c0.029,0.003,0.057,0.009,0.086,0.021V14.598z
				 M9.502,14.337H9.7l-0.078-0.188l-0.018-0.076H9.603l-0.025,0.076L9.502,14.337z"/>
			<path fill="#FFFFFF" d="M10.132,14.536c0.009,0.006,0.018,0.012,0.03,0.019c0.015,0.003,0.033,0.006,0.058,0.006
				c0.021,0,0.041-0.003,0.06-0.006c0.019-0.007,0.032-0.013,0.046-0.024c0.015-0.01,0.024-0.021,0.033-0.037
				c0.009-0.012,0.012-0.028,0.012-0.046c0-0.024-0.007-0.046-0.024-0.062c-0.016-0.016-0.035-0.029-0.06-0.043
				c-0.024-0.012-0.051-0.023-0.079-0.036c-0.027-0.012-0.056-0.027-0.08-0.044c-0.023-0.018-0.043-0.034-0.06-0.061
				c-0.017-0.021-0.024-0.051-0.024-0.085c0-0.024,0.006-0.045,0.016-0.067c0.011-0.018,0.024-0.037,0.043-0.052
				c0.019-0.012,0.039-0.025,0.064-0.031c0.024-0.006,0.054-0.012,0.084-0.012c0.041,0,0.078,0.004,0.109,0.01
				c0.035,0.006,0.061,0.012,0.08,0.021c0,0.012-0.002,0.021-0.002,0.035c-0.002,0.013-0.005,0.028-0.007,0.043
				c-0.003,0.013-0.005,0.028-0.007,0.04c-0.003,0.017-0.006,0.024-0.009,0.036h-0.026l-0.039-0.125
				c-0.011-0.003-0.026-0.006-0.045-0.009s-0.039-0.003-0.06-0.003c-0.031,0-0.06,0.006-0.082,0.024
				c-0.02,0.018-0.031,0.044-0.031,0.072c0,0.026,0.01,0.044,0.024,0.063c0.018,0.015,0.039,0.031,0.063,0.045
				c0.024,0.012,0.05,0.025,0.079,0.037c0.026,0.012,0.054,0.028,0.078,0.044c0.024,0.014,0.045,0.036,0.061,0.057
				c0.018,0.022,0.024,0.05,0.024,0.084c0,0.027-0.003,0.052-0.015,0.072c-0.011,0.024-0.027,0.042-0.047,0.059
				c-0.02,0.015-0.047,0.026-0.076,0.033c-0.03,0.01-0.063,0.016-0.101,0.016c-0.043,0-0.08-0.006-0.111-0.016
				c-0.034-0.009-0.056-0.019-0.072-0.027c0.002-0.012,0.003-0.024,0.005-0.036c0.001-0.016,0.003-0.031,0.006-0.046
				c0.002-0.015,0.006-0.031,0.007-0.047c0.002-0.013,0.006-0.024,0.008-0.036h0.027L10.132,14.536z"/>
			<path fill="#FFFFFF" d="M10.688,14.536c0.009,0.006,0.019,0.012,0.031,0.019c0.012,0.003,0.03,0.006,0.057,0.006
				c0.021,0,0.039-0.003,0.061-0.006c0.017-0.007,0.032-0.013,0.047-0.024c0.014-0.01,0.022-0.021,0.032-0.037
				c0.007-0.012,0.012-0.028,0.012-0.046c0-0.024-0.01-0.046-0.023-0.062c-0.017-0.016-0.037-0.029-0.061-0.043
				c-0.025-0.012-0.052-0.023-0.082-0.036c-0.027-0.012-0.053-0.027-0.077-0.044c-0.022-0.018-0.043-0.034-0.06-0.061
				c-0.017-0.021-0.024-0.051-0.024-0.085c0-0.024,0.005-0.045,0.017-0.067c0.008-0.018,0.021-0.037,0.041-0.052
				c0.019-0.012,0.039-0.025,0.063-0.031c0.025-0.006,0.055-0.012,0.085-0.012c0.039,0,0.077,0.004,0.111,0.01
				c0.03,0.006,0.059,0.012,0.077,0.021c0,0.012-0.002,0.021-0.002,0.035c0,0.013-0.005,0.028-0.007,0.043
				c0,0.013-0.005,0.028-0.005,0.04c-0.005,0.017-0.007,0.024-0.01,0.036h-0.025l-0.04-0.125c-0.011-0.003-0.027-0.006-0.046-0.009
				c-0.017-0.003-0.035-0.003-0.057-0.003c-0.034,0-0.063,0.006-0.083,0.024c-0.02,0.018-0.031,0.044-0.031,0.072
				c0,0.026,0.009,0.044,0.024,0.063c0.018,0.015,0.036,0.031,0.063,0.045c0.023,0.012,0.049,0.025,0.079,0.037
				c0.028,0.012,0.054,0.028,0.079,0.044c0.023,0.014,0.044,0.036,0.061,0.057c0.017,0.022,0.025,0.05,0.025,0.084
				c0,0.027-0.007,0.052-0.019,0.072c-0.009,0.024-0.025,0.042-0.046,0.059c-0.021,0.015-0.045,0.026-0.075,0.033
				c-0.03,0.01-0.063,0.016-0.101,0.016c-0.041,0-0.079-0.006-0.112-0.016c-0.033-0.009-0.057-0.019-0.069-0.027
				c0-0.012,0.001-0.024,0.002-0.036c0.002-0.016,0.004-0.031,0.007-0.046c0.001-0.015,0.004-0.031,0.007-0.047
				c0.003-0.013,0.005-0.024,0.009-0.036h0.025L10.688,14.536z"/>
			<path fill="#FFFFFF" d="M11.148,14.283c0-0.047,0.005-0.093,0.021-0.132c0.015-0.04,0.035-0.074,0.061-0.105
				c0.028-0.027,0.062-0.048,0.099-0.067c0.039-0.014,0.084-0.023,0.133-0.023c0.051,0,0.093,0.01,0.133,0.023
				c0.04,0.02,0.072,0.04,0.098,0.067c0.028,0.031,0.047,0.065,0.061,0.105c0.017,0.039,0.023,0.085,0.023,0.132
				c0,0.045-0.007,0.091-0.023,0.13c-0.014,0.04-0.032,0.074-0.061,0.102c-0.025,0.029-0.058,0.052-0.098,0.07
				c-0.04,0.015-0.082,0.024-0.133,0.024c-0.049,0-0.094-0.01-0.133-0.024c-0.037-0.019-0.07-0.041-0.099-0.07
				c-0.025-0.027-0.046-0.062-0.061-0.102C11.153,14.374,11.148,14.328,11.148,14.283z M11.253,14.283
				c0,0.036,0.005,0.073,0.015,0.107c0.009,0.034,0.023,0.063,0.039,0.088c0.019,0.026,0.04,0.046,0.067,0.06
				c0.028,0.017,0.059,0.022,0.096,0.022c0.035,0,0.065-0.006,0.089-0.022c0.025-0.014,0.045-0.033,0.061-0.06
				c0.017-0.025,0.03-0.054,0.037-0.088c0.008-0.034,0.012-0.071,0.012-0.107c0-0.041-0.004-0.075-0.012-0.111
				c-0.009-0.033-0.021-0.061-0.039-0.089c-0.019-0.025-0.04-0.043-0.067-0.057c-0.028-0.017-0.059-0.022-0.096-0.022
				c-0.038,0-0.068,0.006-0.094,0.022c-0.025,0.014-0.047,0.031-0.061,0.057c-0.017,0.028-0.028,0.056-0.035,0.089
				C11.258,14.208,11.253,14.242,11.253,14.283z"/>
			<path fill="#FFFFFF" d="M12.394,14.432h0.025c0.005,0.02,0.01,0.041,0.01,0.064c0.005,0.028,0.005,0.052,0.002,0.076
				c-0.009,0.007-0.021,0.013-0.034,0.015c-0.015,0.007-0.028,0.011-0.045,0.013c-0.017,0.004-0.03,0.008-0.049,0.008
				c-0.017,0-0.03,0.002-0.044,0.002c-0.057,0-0.105-0.01-0.149-0.022C12.067,14.575,12.03,14.558,12,14.53
				c-0.03-0.028-0.054-0.061-0.07-0.101c-0.017-0.039-0.023-0.09-0.023-0.146c0-0.06,0.007-0.111,0.025-0.15
				c0.019-0.04,0.042-0.075,0.072-0.101c0.03-0.028,0.065-0.046,0.107-0.06c0.04-0.012,0.082-0.018,0.126-0.018
				c0.045,0,0.079,0.004,0.109,0.01s0.057,0.012,0.077,0.021c0,0.012,0,0.021,0,0.032c0,0.016-0.002,0.027-0.002,0.043
				c-0.003,0.016-0.003,0.027-0.005,0.043c-0.002,0.013-0.005,0.024-0.007,0.036h-0.025l-0.052-0.128
				c-0.007-0.003-0.019-0.006-0.035-0.009c-0.016,0-0.035,0-0.051,0c-0.033,0-0.065,0.006-0.094,0.015
				c-0.027,0.014-0.056,0.027-0.077,0.054c-0.021,0.021-0.039,0.051-0.051,0.088c-0.015,0.034-0.021,0.073-0.021,0.123
				c0,0.042,0.007,0.081,0.019,0.115c0.01,0.033,0.028,0.064,0.052,0.089c0.021,0.025,0.049,0.043,0.082,0.055
				c0.032,0.013,0.069,0.019,0.109,0.019c0.021,0,0.039,0,0.054-0.003c0.016-0.003,0.023-0.006,0.03-0.014L12.394,14.432z"/>
			<path fill="#FFFFFF" d="M12.815,14.598h-0.254v-0.025c0.028-0.012,0.056-0.018,0.082-0.021v-0.536
				c-0.015-0.003-0.026-0.006-0.04-0.009s-0.028-0.009-0.042-0.015v-0.025h0.254v0.025c-0.012,0.006-0.025,0.012-0.037,0.015
				c-0.014,0.003-0.03,0.006-0.042,0.009v0.536c0.017,0,0.03,0.003,0.042,0.006c0.015,0.006,0.025,0.009,0.037,0.015V14.598z"/>
			<path fill="#FFFFFF" d="M13.109,14.598h-0.219v-0.025c0.021-0.012,0.047-0.018,0.07-0.021l0.251-0.597h0.026l0.252,0.597
				c0.016,0,0.027,0.003,0.039,0.006s0.023,0.006,0.035,0.015v0.025h-0.257v-0.025c0.015-0.006,0.028-0.009,0.045-0.015
				c0.012-0.003,0.027-0.006,0.039-0.006l-0.067-0.166h-0.235l-0.065,0.166c0.03,0.003,0.056,0.009,0.086,0.021V14.598z
				 M13.109,14.337h0.198l-0.079-0.188l-0.017-0.076H13.21l-0.025,0.076L13.109,14.337z"/>
			<path fill="#FFFFFF" d="M13.956,14.598h-0.279v-0.025c0.014-0.006,0.032-0.009,0.046-0.015c0.015-0.003,0.031-0.006,0.047-0.006
				v-0.539h-0.151l-0.054,0.128h-0.023c-0.002-0.012-0.002-0.023-0.005-0.04c0-0.015-0.002-0.028-0.002-0.045
				c0-0.016-0.005-0.034-0.005-0.049s0-0.028,0-0.04h0.574c0,0.012,0,0.025,0,0.04c-0.003,0.015-0.003,0.031-0.003,0.045
				c0,0.021-0.004,0.034-0.004,0.049c0,0.017-0.003,0.028-0.003,0.04h-0.025l-0.054-0.128h-0.146v0.539
				c0.014,0,0.032,0.003,0.044,0.006c0.014,0.003,0.03,0.009,0.044,0.015V14.598z"/>
			<path fill="#FFFFFF" d="M14.451,14.598h-0.255v-0.025c0.026-0.012,0.052-0.018,0.082-0.021v-0.536
				c-0.017-0.003-0.03-0.006-0.042-0.009c-0.014-0.003-0.025-0.009-0.04-0.015v-0.025h0.255v0.025
				c-0.012,0.006-0.026,0.012-0.042,0.015c-0.012,0.003-0.026,0.006-0.038,0.009v0.536c0.012,0,0.026,0.003,0.038,0.006
				c0.016,0.006,0.03,0.009,0.042,0.015V14.598z"/>
			<path fill="#FFFFFF" d="M14.572,14.283c0-0.047,0.009-0.093,0.025-0.132c0.012-0.04,0.032-0.074,0.061-0.105
				c0.025-0.027,0.059-0.048,0.101-0.067c0.037-0.014,0.081-0.023,0.128-0.023c0.052,0,0.096,0.01,0.136,0.023
				c0.035,0.02,0.072,0.04,0.098,0.067c0.025,0.031,0.047,0.065,0.061,0.105c0.017,0.039,0.021,0.085,0.021,0.132
				c0,0.045-0.005,0.091-0.021,0.13c-0.014,0.04-0.035,0.074-0.061,0.102c-0.025,0.029-0.063,0.052-0.098,0.07
				c-0.04,0.015-0.084,0.024-0.136,0.024c-0.047,0-0.091-0.01-0.128-0.024c-0.042-0.019-0.075-0.041-0.101-0.07
				c-0.028-0.027-0.049-0.062-0.061-0.102C14.581,14.374,14.572,14.328,14.572,14.283z M14.682,14.283
				c0,0.036,0.005,0.073,0.014,0.107c0.01,0.034,0.021,0.063,0.038,0.088c0.021,0.026,0.042,0.046,0.067,0.06
				c0.027,0.017,0.061,0.022,0.096,0.022s0.065-0.006,0.089-0.022c0.025-0.014,0.046-0.033,0.061-0.06
				c0.019-0.025,0.032-0.054,0.039-0.088c0.01-0.034,0.012-0.071,0.012-0.107c0-0.041-0.002-0.075-0.012-0.111
				c-0.009-0.033-0.023-0.061-0.042-0.089c-0.017-0.025-0.037-0.043-0.067-0.057c-0.025-0.017-0.056-0.022-0.094-0.022
				c-0.037,0-0.067,0.006-0.095,0.022c-0.023,0.014-0.047,0.031-0.062,0.057c-0.016,0.028-0.027,0.056-0.032,0.089
				C14.684,14.208,14.682,14.242,14.682,14.283z"/>
			<path fill="#FFFFFF" d="M15.762,13.967h0.217v0.025c-0.03,0.018-0.056,0.029-0.084,0.036v0.581h-0.056l-0.359-0.498l-0.042-0.071
				l0,0l0.009,0.071v0.427c0.023,0.006,0.054,0.02,0.077,0.034v0.025h-0.215v-0.025c0.015-0.009,0.026-0.015,0.038-0.018
				c0.012-0.007,0.027-0.011,0.042-0.017v-0.517c-0.012-0.003-0.023-0.009-0.04-0.012c-0.012-0.006-0.023-0.012-0.03-0.018v-0.025
				h0.163l0.311,0.429l0.047,0.077h0.007l-0.007-0.077v-0.367c-0.015-0.007-0.026-0.01-0.038-0.016
				c-0.019-0.006-0.027-0.012-0.039-0.021V13.967z"/>
		</g>
	</g>
</g>
</svg>
